{
    "C_Cpp.default.cppStandard": "c++17",
    "C_Cpp.default.cStandard": "c17",
    "C_Cpp.default.intelliSenseMode": "windows-gcc-x64",
    "C_Cpp.clang_format_fallbackStyle": "{BasedOnStyle: Google, IndentWidth: 4}",
    "editor.fontSize": 16,
    "workbench.editorAssociations": {
        "*.ipynb": "jupyter.notebook.ipynb"
    },
    "telemetry.enableCrashReporter": false,
    "telemetry.enableTelemetry": false,
    "editor.renderWhitespace": "selection",
    "debug.inlineValues": true,
    "python.pythonPath": "C:/Users/Vlad/AppData/Roaming/Microsoft/Windows/Start Menu/Programs/Python 3.9/python.exe",
    "latex-workshop.view.pdf.viewer": "tab",
    "files.autoSave": "afterDelay", //Автосохранение - каждое 1000 значение
    "cmake.configureOnOpen": true, //Производить ли конфигурацию при открытии проекта
    "cmake.generator": "Ninja",
    "cmake.loggingLevel": "trace",
    "cmake.buildDirectory": "${workspaceFolder}/build-${workspaceFolderBasename}-Debug", //Директория для сборки, где будет происходить сборка под release/debug
    "qttools.visualizerFile": "C:\\qt-natvis-master\\qt5.natvis.xml", //ВАЖНЫЙ файл для отслеживания переменных и прочей информации во время отладки
    "qttools.searchMode": "path", // Можно выбрать CMake, тогда поиск Qt будет по CMAKE_PREFIX_PATH 
    "qttools.loglevel": "error", //Уровень вывода информации
    /////////////////////////////////////////TEMPLATES///////////////////////////////////////////
    "folderTemplates.structures": [
        {
            "name": "Add new Form (h|cpp|ui)",
            "customVariables": [
                "ClassNames"
            ],
            "omitParentDirectory": true,
            "omitFTName": true,
            "overwriteExistingFiles": "prompt",
            "structure": [
                {
                    "fileName": "<ClassNames | lowercase>.cpp",
                    "template": "CppFile"
                },
                {
                    "fileName": "<ClassNames | lowercase>.h",
                    "template": "HFile"
                },
                {
                    "fileName": "<ClassNames | lowercase>.ui",
                    "template": "UiFile"
                },
            ]
        },
        {
            "name": "Create project Qt CMake",
            "customVariables": [
                "ClassNames",
                "QtBinPath",
                "NetvisXMLPath"
            ],
            "omitParentDirectory": true,
            "overwriteExistingFiles": "prompt",
            "structure": [
                {
                    "fileName": "<FTName>/.vscode/settings.json",
                    "template": "SettingsFile"
                },
                {
                    "fileName": "<FTName>/.vscode/launch.json",
                    "template": "LaunchFile"
                },
                {
                    "fileName": "<FTName>/.vscode/tasks.json",
                    "template": "TasksFile"
                },
                {
                    "fileName": "<FTName>",
                    "template": "EmptyDirectory"
                },
                {
                    "fileName": "<FTName>/CMakeLists.txt",
                    "template": "CMakeLists"
                },
                {
                    "fileName": "<FTName>/<ClassNames | lowercase>.cpp",
                    "template": "CppFile"
                },
                {
                    "fileName": "<FTName>/<ClassNames | lowercase>.h",
                    "template": "HFile"
                },
                {
                    "fileName": "<FTName>/<ClassNames | lowercase>.ui",
                    "template": "UiFile"
                },
                {
                    "fileName": "<FTName>/main.cpp",
                    "template": "MainFile"
                },
            ]
        }
    ],
    "folderTemplates.fileTemplates": {
        "TasksFile": [
            "{",
            "    // See https://go.microsoft.com/fwlink/?LinkId=733558",
            "    // for the documentation about the tasks.json format",
            "",
            "    //Измените пути до Qt и компиляторов!!!",
            "",
            "    \"version\": \"2.0.0\",",
            "    \"tasks\": [",
            "        //Debug",
            "        {",
            "            \"label\": \"Cmake configure Debug\",",
            "            \"type\": \"shell\",",
            "            \"command\": \"cmake --no-warn-unused-cli -DCMAKE_BUILD_TYPE:STRING=Debug -H${workspaceFolder} -B${workspaceFolder}/build-${workspaceFolderBasename}-Debug/ -G Ninja\"",
            "        },",
            "        {",
            "            \"label\": \"Create build Dir Debug\",",
            "            \"type\": \"shell\",",
            "            \"command\": \"mkdir -Force ${workspaceFolder}/build-${workspaceFolderBasename}-Debug/\"",
            "        },",
            "        {",
            "            \"label\": \"Run make Debug\",",
            "            \"type\": \"shell\",",
            "            \"command\": \"Ninja\",",
            "            //Если не установлен Ninja",
            "            //\"command\": \"mingw32-make.exe \",",
            "            \"options\": {",
            "                \"cwd\": \"${workspaceFolder}/build-${workspaceFolderBasename}-Debug/\"",
            "            }",
            "        },",
            "        {",
            "            \"label\": \"Clear build folder Debug\",",
            "            \"type\": \"shell\",",
            "            \"command\": \"cmake --build ${workspaceFolder}/build-${workspaceFolderBasename}-Debug/ --target clean\",",
            "            \"options\": {",
            "                \"cwd\": \"${workspaceFolder}/build-${workspaceFolderBasename}-Debug\"",
            "            }",
            "        },",
            "        {",
            "            \"label\": \"Build Debug\",",
            "            \"dependsOn\": [",
            "                \"Create build Dir Debug\",",
            "                \"Cmake configure Debug\",",
            "                \"Run make Debug\"",
            "            ],",
            "            \"dependsOrder\": \"sequence\",",
            "            \"group\": {",
            "                \"kind\": \"build\",",
            "                \"isDefault\": true",
            "            },",
            "            \"problemMatcher\": []",
            "        },",
            "        {",
            "            \"label\": \"Clean build Debug\",",
            "            \"dependsOn\": [",
            "                \"Clear build folder Debug\",",
            "                \"Create build Dir Debug\",",
            "                \"Cmake configure Debug\",",
            "                \"Run make Debug\"",
            "            ],",
            "            \"dependsOrder\": \"sequence\"",
            "        },",
            "        //Release",
            "        {",
            "            \"label\": \"Cmake configure Release\",",
            "            \"type\": \"shell\",",
            "            \"command\": \"cmake --no-warn-unused-cli -DCMAKE_BUILD_TYPE:STRING=Release -H${workspaceFolder} -B${workspaceFolder}/build-${workspaceFolderBasename}-Release/ -G Ninja\"",
            "        },",
            "        {",
            "            \"label\": \"Create build Dir Release\",",
            "            \"type\": \"shell\",",
            "            \"command\": \"mkdir -Force ${workspaceFolder}/build-${workspaceFolderBasename}-Release/\"",
            "        },",
            "        {",
            "            \"label\": \"Run make Release\",",
            "            \"type\": \"shell\",",
            "            \"command\": \"Ninja\",",
            "            //Если не установлен Ninja",
            "            //\"command\": \"mingw32-make.exe \"",
            "            \"options\": {",
            "                \"cwd\": \"${workspaceFolder}/build-${workspaceFolderBasename}-Release/\"",
            "            }",
            "        },",
            "        {",
            "            \"label\": \"Clear build folder Release\",",
            "            \"type\": \"shell\",",
            "            \"command\": \"cmake --build ${workspaceFolder}/build-${workspaceFolderBasename}-Release/ --target clean\",",
            "            \"options\": {",
            "                \"cwd\": \"${workspaceFolder}/build-${workspaceFolderBasename}-Release\"",
            "            }",
            "        },",
            "        {",
            "            \"label\": \"Build Release\",",
            "            \"dependsOn\": [",
            "                \"Create build Dir Release\",",
            "                \"Cmake configure Release\",",
            "                \"Run make Release\"",
            "            ],",
            "            \"dependsOrder\": \"sequence\",",
            "            \"group\": {",
            "                \"kind\": \"build\",",
            "                \"isDefault\": true",
            "            }",
            "        },",
            "        {",
            "            \"label\": \"Clean build Release\",",
            "                \"dependsOn\": [",
            "                \"Clear build folder Release\",",
            "                \"Create build Dir Release\",",
            "                \"Cmake configure Release\",",
            "                \"Run make Release\"",
            "                ],",
            "            \"dependsOrder\": \"sequence\"",
            "        }",
            "    ]",
            "}"
        ],
        "SettingsFile": [
            "{",
            "   \"C_Cpp.default.configurationProvider\": \"ms-vscode.cmake-tools\"",
            "}"
        ],
        "LaunchFile": [
            "{",
            "    // Use IntelliSense to learn about possible attributes.",
            "    // Hover to view descriptions of existing attributes.",
            "    // For more information, visit: https://go.microsoft.com/fwlink/?linkid=830387",
            "    \"version\": \"0.2.0\",",
            "    \"configurations\": [",
            "        {",
            "            \"name\": \"Qt Cmake debug\",",
            "            \"type\": \"cppvsdbg\",",
            "            \"request\": \"launch\",",
            "            \"program\": \"${workspaceFolder}/build-${workspaceFolderBasename}-Debug/${workspaceFolderBasename}.exe\",",
            "            \"args\": [],",
            "            \"cwd\": \"${workspaceFolder}\",",
            "            \"stopAtEntry\": false,",
            "            \"logging\": {",
            "                \"moduleLoad\": false,",
            "                \"programOutput\": true,",
            "                \"engineLogging\": true",
            "            },",
            "            \"environment\": [",
            "                {",
            "                    \"name\": \"PATH\",",
            "                    \"value\": \"<QtBinPath>;${env:PATH}\"",
            "                }",
            "            ],",
            "            \"preLaunchTask\": \"Build Debug\",",
            "            \"console\": \"internalConsole\",",
            "            \"visualizerFile\": \"<NetvisXMLPath>\"",
            "        },",
            "        {",
            "            \"name\": \"Qt Cmake release\",",
            "            \"type\": \"cppvsdbg\",",
            "            \"request\": \"launch\",",
            "            \"program\": \"${workspaceFolder}/build-${workspaceFolderBasename}-Release/${workspaceFolderBasename}.exe\",",
            "            \"args\": [],",
            "            \"cwd\": \"${workspaceFolder}\",",
            "            \"stopAtEntry\": false,",
            "            \"logging\": {",
            "                \"moduleLoad\": false,",
            "                \"programOutput\": true,",
            "                \"engineLogging\": true",
            "            },",
            "            \"environment\": [",
            "                {",
            "                    \"name\": \"PATH\",",
            "                    \"value\": \"<QtBinPath>;${env:PATH}\"",
            "                }",
            "            ],",
            "            \"preLaunchTask\": \"Build Release\",",
            "            \"console\": \"internalConsole\",",
            "            \"visualizerFile\":\"<NetvisXMLPath>\"",
            "        }",
            "    ]",
            "}"
        ],
        "UiFile": [
            "<?xml version=\"1.0\" encoding=\"UTF-8\"?>",
            "<ui version=\"4.0\">",
            " <class><ClassNames></class>",
            " <widget class=\"QMainWindow\" name=\"<ClassNames>\">",
            "  <property name=\"geometry\">",
            "   <rect>",
            "    <x>0</x>",
            "    <y>0</y>",
            "    <width>800</width>",
            "    <height>600</height>",
            "   </rect>",
            "  </property>",
            "  <property name=\"windowTitle\">",
            "   <string><ClassNames></string>",
            "  </property>",
            "  <widget class=\"QWidget\" name=\"centralwidget\"/>",
            "  <widget class=\"QMenuBar\" name=\"menubar\"/>",
            "  <widget class=\"QStatusBar\" name=\"statusbar\"/>",
            " </widget>",
            " <resources/>",
            " <connections/>",
            "</ui>"
        ],
        "HFile": [
            "#ifndef <ClassNames | UPPERCASE>_H",
            "#define <ClassNames | UPPERCASE>_H",
            "",
            "#include <QMainWindow>",
            "",
            "QT_BEGIN_NAMESPACE",
            "namespace Ui { class <ClassNames>; }",
            "QT_END_NAMESPACE",
            "",
            "class <ClassNames> : public QMainWindow",
            "{",
            "    Q_OBJECT",
            "",
            "public:",
            "    <ClassNames>(QWidget *parent = nullptr);",
            "    ~<ClassNames>();",
            "",
            "private:",
            "    Ui::<ClassNames> *ui;",
            "};",
            "#endif // <ClassNames | UPPERCASE>_H"
        ],
        "CppFile": [
            "#include \"<ClassNames | lowercase>.h\"",
            "#include \"./ui_<ClassNames | lowercase>.h\"",
            "",
            "<ClassNames>::<ClassNames>(QWidget *parent)",
            "    : QMainWindow(parent)",
            "    , ui(new Ui::<ClassNames>)",
            "{",
            "    ui->setupUi(this);",
            "}",
            "",
            "<ClassNames>::~<ClassNames>()",
            "{",
            "    delete ui;",
            "}"
        ],
        "MainFile": [
            "#include \"<ClassNames | lowercase>.h\"",
            "",
            "#include <QApplication>",
            "",
            "int main(int argc, char *argv[])",
            "{",
            "    QApplication a(argc, argv);",
            "    <ClassNames> w;",
            "    w.show();",
            "    return a.exec();",
            "}"
        ],
        "CMakeLists": [
            "cmake_minimum_required(VERSION 3.5)",
            "",
            "project(<FTName> VERSION 0.1 LANGUAGES CXX)",
            "set(CMAKE_INCLUDE_CURRENT_DIR ON)",
            "",
            "set(CMAKE_AUTOUIC ON)",
            "set(CMAKE_AUTOMOC ON)",
            "set(CMAKE_AUTORCC ON)",
            "",
            "set(CMAKE_CXX_STANDARD 11)",
            "set(CMAKE_CXX_STANDARD_REQUIRED ON)",
            "",
            "# QtCreator supports the following variables for Android, which are identical to qmake Android variables.",
            "# Check https://doc.qt.io/qt/deployment-android.html for more information.",
            "# They need to be set before the find_package( ...) calls below.",
            "",
            "#if(ANDROID)",
            "#    set(ANDROID_PACKAGE_SOURCE_DIR \"${CMAKE_CURRENT_SOURCE_DIR}/android\")",
            "#    if (ANDROID_ABI STREQUAL \"armeabi-v7a\")",
            "#        set(ANDROID_EXTRA_LIBS",
            "#            ${CMAKE_CURRENT_SOURCE_DIR}/path/to/libcrypto.so",
            "#            ${CMAKE_CURRENT_SOURCE_DIR}/path/to/libssl.so)",
            "#    endif()",
            "#endif()",
            "",
            "find_package(QT NAMES Qt6 Qt5 COMPONENTS Widgets REQUIRED)",
            "find_package(Qt${QT_VERSION_MAJOR} COMPONENTS Widgets REQUIRED)",
            "",
            "set(PROJECT_SOURCES",
            "        main.cpp",
            "        <ClassNames | lowercase>.cpp",
            "        <ClassNames | lowercase>.h",
            "        <ClassNames | lowercase>.ui",
            ")",
            "",
            "if(${QT_VERSION_MAJOR} GREATER_EQUAL 6)",
            "    qt_add_executable(<FTName>",
            "        MANUAL_FINALIZATION",
            "        ${PROJECT_SOURCES}",
            "    )",
            "else()",
            "    if(ANDROID)",
            "        add_library(<FTName> SHARED",
            "            ${PROJECT_SOURCES}",
            "        )",
            "    else()",
            "        add_executable(<FTName>",
            "            ${PROJECT_SOURCES}",
            "        )",
            "    endif()",
            "endif()",
            "",
            "target_link_libraries(<FTName> PRIVATE Qt${QT_VERSION_MAJOR}::Widgets)",
            "",
            "set_target_properties(<FTName> PROPERTIES",
            "    MACOSX_BUNDLE_GUI_IDENTIFIER my.example.com",
            "    MACOSX_BUNDLE_BUNDLE_VERSION ${PROJECT_VERSION}",
            "    MACOSX_BUNDLE_SHORT_VERSION_STRING ${PROJECT_VERSION_MAJOR}.${PROJECT_VERSION_MINOR}",
            ")",
            "",
            "if(QT_VERSION_MAJOR EQUAL 6)",
            "    qt_finalize_executable(<FTName>)",
            "endif()"
        ]
    },
    "explorer.confirmDelete": false,
    //////////////////////////////////TODO/FIXME//////////////////////////////////////
    "todo-tree.highlights.customHighlight": {
        "TODO": {
            "foreground": "black",
            "background": "yellow",
            "iconColour": "yellow",
            "icon": "check",
            "gutterIcon": true,
            "type": "line"
        },
        "FIXME": {
            "foreground": "black",
            "background": "red",
            "iconColour": "red",
            "gutterIcon": true,
            "type": "line"
        }
    },
    "workbench.colorTheme": "Solarized Light",
    "C_Cpp.updateChannel": "Insiders",
    "workbench.iconTheme": "vscode-icons",
    "cSpell.language": "en,ru",
    "cSpell.userWords": [
        "Volkova"
    ],
    "C_Cpp.autocompleteAddParentheses": true,
    "window.zoomLevel": 1
}